Curso de Jurimetria
…
Rodando a função criada.

arqs <- dir('data-raw/cjsg', full.names = TRUE)
d_cjsg <- parse_cjsg(arqs)
saveRDS(d_cjsg, 'data-raw/d_cjsg.rds')

d_cjsg <- readRDS('data-raw/d_cjsg.rds')
d_cjsg

## # A tibble: 184,250 x 14
##                                                      arq    id cd_acordao
##                                                    <chr> <chr>      <chr>
## 1  /home/storage/abj/raw/TJSP/cjsg/cjsg_mes01/00001.html     1    9381267
## 2  /home/storage/abj/raw/TJSP/cjsg/cjsg_mes01/00001.html     2    8671548
## 3  /home/storage/abj/raw/TJSP/cjsg/cjsg_mes01/00001.html     3    8634338
## 4  /home/storage/abj/raw/TJSP/cjsg/cjsg_mes01/00001.html     4    8536605
## 5  /home/storage/abj/raw/TJSP/cjsg/cjsg_mes01/00001.html     5    8509346
## 6  /home/storage/abj/raw/TJSP/cjsg/cjsg_mes01/00001.html     6    8490681
## 7  /home/storage/abj/raw/TJSP/cjsg/cjsg_mes01/00001.html     7    8466583
## 8  /home/storage/abj/raw/TJSP/cjsg/cjsg_mes01/00001.html     8    8449087
## 9  /home/storage/abj/raw/TJSP/cjsg/cjsg_mes01/00001.html     9    8429536
## 10 /home/storage/abj/raw/TJSP/cjsg/cjsg_mes01/00001.html    10    8331899
## # ... with 184,240 more rows, and 11 more variables: n_processo <chr>,
## #   comarca <chr>, data_julgamento <chr>, data_registro <chr>,
## #   ementa <chr>, orgao_julgador <chr>, outros_numeros <chr>,
## #   relatora <chr>, classe_assunto <chr>, txt_ementa <chr>, result <chr>
…
partes_cposg <- function(arqs, verbose = FALSE) {
  abjutils::dvec(partes_cposg_um, arqs, verbose = verbose) %>% 
    rename(arq = item)
}

arqs <- dir('data-raw/cposg', full.names = TRUE)
d_partes <- arqs %>% partes_cposg()
saveRDS(d_partes, 'data-raw/d_partes.rds')
d_partes

## # A tibble: 3,689 x 6
##                                         arq    id id_tipo     tipo
##                                       <chr> <int>   <chr>    <chr>
## 1  data-raw/cposg/00000021520118260412.html     1      01 apelante
## 2  data-raw/cposg/00000021520118260412.html     1      02 advogado
## 3  data-raw/cposg/00000021520118260412.html     2      01  apelado
## 4  data-raw/cposg/00000049620148260244.html     1      01 apelante
## 5  data-raw/cposg/00000049620148260244.html     2      01  apelado
## 6  data-raw/cposg/00000049620148260244.html     2      02 advogada
## 7  data-raw/cposg/00000071020138260075.html     1      01 apelante
## 8  data-raw/cposg/00000071020138260075.html     1      02 advogado
## 9  data-raw/cposg/00000071020138260075.html     2      01  apelado
## 10 data-raw/cposg/00000085120138260218.html     1      01 apelante
## # ... with 3,679 more rows, and 2 more variables: nome <chr>, result <chr>
…
arqs <- dir('data-raw/cposg', full.names = TRUE)
d_decisoes <- decisoes_cposg(arqs)
saveRDS(d_decisoes, 'data-raw/d_decisoes.rds')
d_decisoes

d_decisoes <- readRDS('data-raw/d_decisoes.rds')
d_decisoes

## # A tibble: 1,120 x 5
##                                         arq       data situacao
##                                       <chr>      <chr>    <chr>
## 1  data-raw/cposg/00000021520118260412.html 15/12/2014  Julgado
## 2  data-raw/cposg/00000049620148260244.html 10/12/2015  Julgado
## 3  data-raw/cposg/00000071020138260075.html 18/05/2015  Julgado
## 4  data-raw/cposg/00000085120138260218.html 11/11/2015  Julgado
## 5  data-raw/cposg/00000094520148260624.html 26/02/2015  Julgado
## 6  data-raw/cposg/00000104920148260165.html 12/05/2015  Julgado
## 7  data-raw/cposg/00000109420148260247.html 24/09/2015  Julgado
## 8  data-raw/cposg/00000109420148260635.html 15/12/2015  Julgado
## 9  data-raw/cposg/00000125120108260038.html 03/09/2015  Julgado
## 10 data-raw/cposg/00000135920148260082.html 17/08/2015  Julgado
## # ... with 1,110 more rows, and 2 more variables: decisao <chr>,
## #   result <chr>
