Curso de Jurimetria
…
“(…) The fact that data science exists as a field is a colossal failure of statistics. To me, [what I do] is what statistics is all about. It is gaining insight from data using modelling and visualization. Data munging and manipulation is hard and statistics has just said that’s not our domain.”

Hadley Wickham

Por ser um pacote que se propõe a realizar um dos trabalhos mais árduos da análise estatística, e por atingir esse objetivo de forma elegante, eficaz e eficiente, o dplyr pode ser considerado como uma revolução no R.

2.6.1 Trabalhando com tibbles

A tibble nada mais é do que um data.frame, mas com um método de impressão mais adequado. Outras diferenças podem ser estudadas neste link.

Vamos assumir que temos a seguinte base de dados:

d_cjsg

## # A tibble: 184,250 x 14
##                                                      arq    id cd_acordao
##                                                    <chr> <chr>      <chr>
## 1  /home/storage/abj/raw/TJSP/cjsg/cjsg_mes01/00001.html     1    9381267
## 2  /home/storage/abj/raw/TJSP/cjsg/cjsg_mes01/00001.html     2    8671548
## 3  /home/storage/abj/raw/TJSP/cjsg/cjsg_mes01/00001.html     3    8634338
## 4  /home/storage/abj/raw/TJSP/cjsg/cjsg_mes01/00001.html     4    8536605
## 5  /home/storage/abj/raw/TJSP/cjsg/cjsg_mes01/00001.html     5    8509346
## 6  /home/storage/abj/raw/TJSP/cjsg/cjsg_mes01/00001.html     6    8490681
## 7  /home/storage/abj/raw/TJSP/cjsg/cjsg_mes01/00001.html     7    8466583
## 8  /home/storage/abj/raw/TJSP/cjsg/cjsg_mes01/00001.html     8    8449087
## 9  /home/storage/abj/raw/TJSP/cjsg/cjsg_mes01/00001.html     9    8429536
## 10 /home/storage/abj/raw/TJSP/cjsg/cjsg_mes01/00001.html    10    8331899
## # ... with 184,240 more rows, and 11 more variables: n_processo <chr>,
## #   comarca <chr>, data_julgamento <chr>, data_registro <chr>,
## #   ementa <chr>, orgao_julgador <chr>, outros_numeros <chr>,
## #   relatora <chr>, classe_assunto <chr>, txt_ementa <chr>, result <chr>
…
Utiliza C e C++ por trás da maioria das funções, o que geralmente torna o código mais eficiente.

Pode trabalhar com diferentes fontes de dados, como bases relacionais (SQL) e data.table.

2.6.5 select

Utilizar starts_with(x), contains(x), matches(x), one_of(x), etc.

Possível colocar nomes, índices, e intervalos de variáveis com :.

d_cjsg %>% 
  select(id, cd_acordao, comarca, relator = relatora)

## # A tibble: 184,250 x 4
##       id cd_acordao             comarca                  relator
##    <chr>      <chr>               <chr>                    <chr>
## 1      1    9381267           São Paulo           Encinas Manfré
## 2      2    8671548           Guarulhos           Edison Brandão
## 3      3    8634338              Osasco             Ivan Sartori
## 4      4    8536605          Adamantina          Walter da Silva
## 5      5    8509346             Limeira Guilherme de Souza Nucci
## 6      6    8490681           São Paulo         Roberto Solimene
## 7      7    8466583              Suzano             Poças Leitão
## 8      8    8449087 Presidente Prudente             Ivan Sartori
## 9      9    8429536           São Paulo           Willian Campos
## 10    10    8331899           São Paulo     Luis Soares de Mello
## # ... with 184,240 more rows

d_cjsg %>% 
  select(cd_acordao:comarca, classe_assunto)

## # A tibble: 184,250 x 4
##    cd_acordao                n_processo             comarca
##         <chr>                     <chr>               <chr>
## 1     9381267 0081568-68.2012.8.26.0050           São Paulo
## 2     8671548 2132739-15.2014.8.26.0000           Guarulhos
## 3     8634338 2204759-04.2014.8.26.0000              Osasco
## 4     8536605 2179832-71.2014.8.26.0000          Adamantina
## 5     8509346 2055376-49.2014.8.26.0000             Limeira
## 6     8490681 0014476-05.2014.8.26.0050           São Paulo
## 7     8466583 0067859-48.2014.8.26.0000              Suzano
## 8     8449087 0054802-60.2014.8.26.0000 Presidente Prudente
## 9     8429536 2128810-71.2014.8.26.0000           São Paulo
## 10    8331899 2002343-13.2015.8.26.0000           São Paulo
## # ... with 184,240 more rows, and 1 more variables: classe_assunto <chr>

d_cjsg %>% 
  select(n_processo, relator = relatora, starts_with('data_'))

## # A tibble: 184,250 x 4
##                   n_processo                  relator data_julgamento
##                        <chr>                    <chr>           <chr>
## 1  0081568-68.2012.8.26.0050           Encinas Manfré      29/01/2015
## 2  2132739-15.2014.8.26.0000           Edison Brandão      27/01/2015
## 3  2204759-04.2014.8.26.0000             Ivan Sartori      27/01/2015
## 4  2179832-71.2014.8.26.0000          Walter da Silva      22/01/2015
## 5  2055376-49.2014.8.26.0000 Guilherme de Souza Nucci      27/01/2015
## 6  0014476-05.2014.8.26.0050         Roberto Solimene      29/01/2015
## 7  0067859-48.2014.8.26.0000             Poças Leitão      29/01/2015
## 8  0054802-60.2014.8.26.0000             Ivan Sartori      27/01/2015
## 9  2128810-71.2014.8.26.0000           Willian Campos      29/01/2015
## 10 2002343-13.2015.8.26.0000     Luis Soares de Mello      27/01/2015
## # ... with 184,240 more rows, and 1 more variables: data_registro <chr>

2.6.6 filter

Parecido com subset.

Condições separadas por vírgulas é o mesmo que separar por &.

d_cjsg %>% 
  select(id, cd_acordao, comarca, relator = relatora) %>% 
  filter(comarca == 'São Paulo')

## # A tibble: 41,488 x 4
##       id cd_acordao   comarca               relator
##    <chr>      <chr>     <chr>                 <chr>
## 1      1    9381267 São Paulo        Encinas Manfré
## 2      6    8490681 São Paulo      Roberto Solimene
## 3      9    8429536 São Paulo        Willian Campos
## 4     10    8331899 São Paulo  Luis Soares de Mello
## 5     12    8317638 São Paulo Sérgio Mazina Martins
## 6     13    8314983 São Paulo         Péricles Piza
## 7     14    8314866 São Paulo         Péricles Piza
## 8     17    8293299 São Paulo        Ivo de Almeida
## 9     19    8284691 São Paulo        Edison Brandão
## 10    21    8274010 São Paulo  Cesar Mecchi Morales
## # ... with 41,478 more rows

library(lubridate)
d_cjsg %>% 
  select(id, cd_acordao, comarca, data_julgamento, relator = relatora) %>% 
  filter(comarca %in% c('Campinas', 'Sorocaba'),
         day(dmy(data_julgamento)) >= 29 | day(dmy(data_julgamento)) < 25)

## # A tibble: 6,262 x 5
##       id cd_acordao  comarca data_julgamento                relator
##    <chr>      <chr>    <chr>           <chr>                  <chr>
## 1     33    8221266 Sorocaba      29/01/2015 Alcides Malossi Junior
## 2    136    8211543 Campinas      29/01/2015        Walter da Silva
## 3    174    8211235 Sorocaba      22/01/2015        Walter da Silva
## 4    188    8211081 Sorocaba      29/01/2015        Walter da Silva
## 5    190    8211053 Campinas      29/01/2015        Walter da Silva
## 6    229    8206214 Sorocaba      29/01/2015      Ricardo Tucunduva
## 7    312    8194316 Sorocaba      29/01/2015           Poças Leitão
## 8    354    8193920 Campinas      29/01/2015           Sérgio Ribas
## 9    417    8193329 Campinas      29/01/2015           Poças Leitão
## 10   427    8193274 Sorocaba      29/01/2015           Poças Leitão
## # ... with 6,252 more rows
2.6.7 mutate

Parecido com transform, mas aceita várias novas colunas iterativamente.

Novas variáveis devem ter o mesmo length que o nrow do bd oridinal ou 1.

library(stringr)
d_cjsg %>% 
  select(id, n_processo, comarca, data_julgamento) %>% 
  mutate(ano_julgamento = year(dmy(data_julgamento)),
         ano_proc = str_sub(n_processo, 12, 15),
         ano_proc = as.numeric(ano_proc)) %>% 
  mutate(tempo_anos = ano_julgamento - ano_proc)

## # A tibble: 184,250 x 7
##       id                n_processo             comarca data_julgamento
##    <chr>                     <chr>               <chr>           <chr>
## 1      1 0081568-68.2012.8.26.0050           São Paulo      29/01/2015
## 2      2 2132739-15.2014.8.26.0000           Guarulhos      27/01/2015
## 3      3 2204759-04.2014.8.26.0000              Osasco      27/01/2015
## 4      4 2179832-71.2014.8.26.0000          Adamantina      22/01/2015
## 5      5 2055376-49.2014.8.26.0000             Limeira      27/01/2015
## 6      6 0014476-05.2014.8.26.0050           São Paulo      29/01/2015
## 7      7 0067859-48.2014.8.26.0000              Suzano      29/01/2015
## 8      8 0054802-60.2014.8.26.0000 Presidente Prudente      27/01/2015
## 9      9 2128810-71.2014.8.26.0000           São Paulo      29/01/2015
## 10    10 2002343-13.2015.8.26.0000           São Paulo      27/01/2015
## # ... with 184,240 more rows, and 3 more variables: ano_julgamento <dbl>,
## #   ano_proc <dbl>, tempo_anos <dbl>
…
Simplesmente ordena de acordo com as opções.

Utilizar desc para ordem decrescente.

library(stringr)
d_cjsg %>% 
  select(id, n_processo, comarca, data_julgamento) %>% 
  mutate(ano_julgamento = year(dmy(data_julgamento)),
         ano_proc = str_sub(n_processo, 12, 15),
         ano_proc = as.numeric(ano_proc)) %>% 
  mutate(tempo_anos = ano_julgamento - ano_proc) %>% 
  arrange(desc(tempo_anos))

## # A tibble: 184,250 x 7
##       id                n_processo   comarca data_julgamento
##    <chr>                     <chr>     <chr>           <chr>
## 1   1797 0901097-67.1957.8.26.0050 São Paulo      30/04/2015
## 2  13650 0815784-50.1971.8.26.0050 São Paulo      12/11/2015
## 3   7222 9000001-18.1976.8.26.0309   Jundiaí      16/07/2015
## 4   8228 9000001-74.1979.8.26.0224 Guarulhos      23/02/2015
## 5   6512 0909882-46.1979.8.26.0050 São Paulo      26/05/2015
## 6   3439 9000001-81.1981.8.26.0005 São Paulo      26/02/2015
## 7   1469 0000014-17.1982.8.26.0292   Jacareí      29/01/2015
## 8  12850 0000784-59.1982.8.26.0114  Campinas      02/07/2015
## 9   7040 0000019-02.1983.8.26.0584 São Pedro      27/01/2015
## 10  3920 2050003-20.1984.8.26.0281   Itatiba      26/02/2015
## # ... with 184,240 more rows, and 3 more variables: ano_julgamento <dbl>,
## #   ano_proc <dbl>, tempo_anos <dbl>
…
  select(id, n_processo, comarca, data_julgamento) %>% 
  mutate(ano_julgamento = year(dmy(data_julgamento)),
         ano_proc = str_sub(n_processo, 12, 15),
         ano_proc = as.numeric(ano_proc)) %>% 
  mutate(tempo_anos = ano_julgamento - ano_proc) %>% 
  arrange(desc(tempo_anos)) %>% 
  group_by(comarca) %>% 
  summarise(n = n(),
            media_anos = mean(tempo_anos),
            min_anos = min(tempo_anos),
            max_anos = max(tempo_anos)) %>% 
  filter(n > 5) %>% 
  arrange(desc(media_anos))

## # A tibble: 275 x 5
##                       comarca     n media_anos min_anos max_anos
##                         <chr> <int>      <dbl>    <dbl>    <dbl>
## 1      F.D. PAULÍNIA/CAMPINAS     7   9.142857        4       13
## 2                      Queluz    63   3.984127        0        7
## 3                      Rosana   126   3.865079        0       14
## 4                   Nhandeara   144   3.777778        0       15
## 5  Santa Rita do Passa Quatro   128   3.765625        0       12
## 6             Pindamonhangaba   582   3.762887        0       19
## 7                   Rancharia   293   3.744027        0       29
## 8                     Bananal    36   3.611111        0       11
## 9                   Paraibuna    61   3.524590        0       14
## 10    Mirante do Paranapanema    85   3.517647        0       19
## # ... with 265 more rows

d_cjsg %>% 
  count(relatora, sort = TRUE) %>% 
  mutate(prop = n / sum(n), prop = scales::percent(prop))

## # A tibble: 111 x 3
##                    relatora     n  prop
##                       <chr> <int> <chr>
## 1             Sérgio Coelho  3424 1.86%
## 2    Miguel Marques e Silva  3352 1.82%
## 3              Poças Leitão  2859 1.55%
## 4           Walter da Silva  2834 1.54%
## 5           Francisco Bruno  2767 1.50%
## 6            Edison Brandão  2748 1.49%
## 7                Souza Nery  2739 1.49%
## 8              Carlos Bueno  2730 1.48%
## 9            Ivo de Almeida  2661 1.44%
## 10 Guilherme de Souza Nucci  2639 1.43%
## # ... with 101 more rows

2.6.10 gather

“Empilha” o banco de dados

library(tidyr)
d_cjsg %>% 
  select(cd_acordao:data_registro) %>% 
  gather(key, value, -cd_acordao) %>% 
  arrange(cd_acordao)

## # A tibble: 737,000 x 3
##    cd_acordao             key                     value
##         <chr>           <chr>                     <chr>
## 1     8137574      n_processo 0209050-18.2013.8.26.0000
## 2     8137574         comarca                 São Paulo
## 3     8137574 data_julgamento                22/01/2015
## 4     8137574   data_registro                22/01/2015
## 5     8137600      n_processo 0016319-58.2014.8.26.0000
## 6     8137600         comarca                 São Paulo
## 7     8137600 data_julgamento                22/01/2015
## 8     8137600   data_registro                22/01/2015
## 9     8137628      n_processo 0104838-68.2005.8.26.0050
## 10    8137628         comarca                 São Paulo
## # ... with 736,990 more rows

2.6.11 spread

“Joga” uma variável nas colunas

É essencialmente a função inversa de gather

d_cjsg %>% 
  distinct(cd_acordao, .keep_all = TRUE) %>% 
  select(cd_acordao:data_registro) %>% 
  gather(key, value, -cd_acordao) %>% 
  spread(key, value)

## # A tibble: 184,249 x 5
##    cd_acordao                  comarca data_julgamento data_registro
## *       <chr>                    <chr>           <chr>         <chr>
## 1     8137574                São Paulo      22/01/2015    22/01/2015
## 2     8137600                São Paulo      22/01/2015    22/01/2015
## 3     8137628                São Paulo      22/01/2015    22/01/2015
## 4     8137638                São Paulo      22/01/2015    22/01/2015
## 5     8137663 Espírito Santo do Pinhal      22/01/2015    22/01/2015
## 6     8137671     Presidente Venceslau      22/01/2015    22/01/2015
## 7     8137677       Paraguaçu Paulista      22/01/2015    22/01/2015
## 8     8137690                Guarulhos      22/01/2015    22/01/2015
## 9     8137695                   Osasco      22/01/2015    22/01/2015
## 10    8137696                Americana      22/01/2015    22/01/2015
## # ... with 184,239 more rows, and 1 more variables: n_processo <chr>

2.6.12 Funções auxiliares

unite junta duas ou mais colunas usando algum separador (_, por exemplo).

separate faz o inverso de unite, e uma coluna em várias usando um separador.

d_cjsg %>% 
  select(n_processo, classe_assunto) %>% 
  separate(classe_assunto, c('classe', 'assunto'), sep = ' / ', 
           extra = 'merge', fill = 'right') %>% 
  count(classe, sort = TRUE)

## # A tibble: 30 x 2
##                                 classe     n
##                                  <chr> <int>
## 1                             Apelação 88322
## 2                        Habeas Corpus 54237
## 3             Agravo de Execução Penal 25388
## 4               Embargos de Declaração  6125
## 5           Recurso em Sentido Estrito  4038
## 6                     Revisão Criminal  3675
## 7                 Mandado de Segurança   891
## 8  Embargos Infringentes e de Nulidade   485
## 9                   Reexame Necessário   305
## 10                   Agravo Regimental   217
## # ... with 20 more rows
…
